{
  "1" : [
    {
      "title": "1 Listing Presentation Introduction",
      "para": "Any text here",
      "audio": "../../public/audios/test.mp3"
    },
    {
      "title": "1 Listing Presentation Introduction",
      "para": "Any text here",
      "audio": "../../public/audios/test.mp3"
    }
  ],
  "2" : [
    {
      "title": "2 Listing Presentation Introduction",
      "para": "Any text here",
      "audio": "../../public/audios/test.mp3"
    },
    {
      "title":"2 Listing Presentation Introduction",
      "para": "Any text here",
      "audio": "../../public/audios/test.mp3"
    }
  ],
  "3" : [
    {
      "title": "3 Listing Presentation Introduction",
      "para": "Any text here",
      "audio": "../../public/audios/test.mp3"
    },
    {
      "title": "3 Listing Presentation Introduction",
      "para": "Any text here",
      "audio": "../../public/audios/test.mp3"
    }
  ],
  "4" : [
    {
      "title": "4 Listing Presentation Introduction",
      "para": "Any text here",
      "audio": "../../public/audios/test.mp3"
    },
    {
      "title": "4 Listing Presentation Introduction",
      "para": "Any text here",
      "audio": "../../public/audios/test.mp3"
    }
  ],
  "5" : [
    {
      "title": "5 Listing Presentation Introduction",
      "para": "Any text here",
      "audio": "../../public/audios/test.mp3"
    },
    {
      "title": "5 Listing Presentation Introduction",
      "para": "Any text here",
      "audio": "../../public/audios/test.mp3"
    }
  ],
  "6" : [
    {
      "title": "6 Listing Presentation Introduction",
      "para": "Any text here",
      "audio": "../../public/audios/test.mp3"
    },
    {
      "title": "6 Listing Presentation Introduction",
      "para": "Any text here",
      "audio": "../../public/audios/test.mp3"
    }
  ],
  "7" : [
    {
      "title": "7 Listing Presentation Introduction",
      "para": "Any text here",
      "audio": "../../public/audios/test.mp3"
    },
    {
      "title": "7 Listing Presentation Introduction",
      "para": "Any text here",
      "audio": "../../public/audios/test.mp3"
    }
  ],
  "8" : [
    {
      "title": "8 Listing Presentation Introduction",
      "para": "Any text here",
      "audio": "../../public/audios/test.mp3"
    },
    {
      "title": "8 Listing Presentation Introduction",
      "para": "Any text here",
      "audio": "../../public/audios/test.mp3"
    }
  ],
  "9" : [
    {
      "title": "9 Listing Presentation Introduction",
      "para": "Any text here",
      "audio": "../../public/audios/test.mp3"
    },
    {
      "title": "9 Listing Presentation Introduction",
      "para": "Any text here",
      "audio": "../../public/audios/test.mp3"
    }
  ],
  "10" : [
    {
      "title": "10 Listing Presentation Introduction",
      "para": "Any text here",
      "audio": "../../public/audios/test.mp3"
    },
    {
      "title": "10 Listing Presentation Introduction",
      "para": "Any text here",
      "audio": "../../public/audios/test.mp3"
    }
  ]
}